<?xml version="1.0" encoding="UTF-8"?>
<svg height="128px" viewBox="0 0 128 128" width="128px" xmlns="http://www.w3.org/2000/svg" xmlns:xlink="http://www.w3.org/1999/xlink">
    <linearGradient id="a" gradientUnits="userSpaceOnUse" x1="45.99918" x2="64" y1="74.969452" y2="104">
        <stop offset="0" stop-color="#613583"/>
        <stop offset="1" stop-color="#a347ba"/>
    </linearGradient>
    <linearGradient id="b" gradientUnits="userSpaceOnUse" x1="82" x2="64" y1="53.607697" y2="24">
        <stop offset="0" stop-color="#e5a50a"/>
        <stop offset="1" stop-color="#f6d32d"/>
    </linearGradient>
    <linearGradient id="c" gradientUnits="userSpaceOnUse" x1="45.999142" x2="28" y1="53.607635" y2="84.784607">
        <stop offset="0" stop-color="#1a5fb4"/>
        <stop offset="1" stop-color="#3584e4"/>
    </linearGradient>
    <linearGradient id="d" gradientUnits="userSpaceOnUse" x1="82.000847" x2="100" y1="74.393234" y2="44">
        <stop offset="0" stop-color="#c64600"/>
        <stop offset="1" stop-color="#ff7800"/>
    </linearGradient>
    <linearGradient id="e" gradientUnits="userSpaceOnUse" x1="63.999378" x2="28.00036" y1="43.215469" y2="43.216034">
        <stop offset="0" stop-color="#26a269"/>
        <stop offset="1" stop-color="#33d17a"/>
    </linearGradient>
    <linearGradient id="f" gradientUnits="userSpaceOnUse" x1="64.499023" x2="100" y1="85.074127" y2="86">
        <stop offset="0" stop-color="#a51d2d"/>
        <stop offset="1" stop-color="#e01b24"/>
    </linearGradient>
    <path d="m 82 53.609375 v 20.78125 l -18 10.394531 l -18 -10.394531 v -20.78125 l 18 -10.394531 z m 0 0" fill="#3d3846"/>
    <g fill="none" stroke-width="36">
        <path d="m 28 43.214844 v 41.570312" stroke="#33d17a"/>
        <path d="m 64 105.570312 l -36 -20.785156" stroke="#3584e4"/>
        <path d="m 64 105.570312 l 36 -20.785156" stroke="#a347ba"/>
        <path d="m 100 43.214844 v 41.570312" stroke="#e01b24"/>
        <path d="m 100 43.214844 l -36 -20.785156" stroke="#ff7800"/>
        <path d="m 28 43.214844 l 36 -20.785156" stroke="#f6d32d"/>
    </g>
    <path d="m 64 123.570312 c 9.941406 0 18 -8.058593 18 -18 c -0.007812 -5.894531 -2.902344 -11.410156 -7.742188 -14.765624 l -9.257812 -5.441407 l -1 -0.578125 c -2.773438 -1.566406 -5.953125 -3.417968 -8.535156 -4.960937 c -5.796875 -3.121094 -9.457032 -9.1875 -9.464844 -15.824219 v 41.570312 c 0 9.941407 8.058594 18 18 18 z m -17.933594 -19.453124 c 0.023438 -0.28125 0.066406 -0.5625 0.101563 -0.839844 c -0.039063 0.277344 -0.074219 0.558594 -0.101563 0.839844 z m 0.9375 -4.410157 c 0.027344 -0.078125 0.046875 -0.15625 0.074219 -0.230469 h 0.003906 c -0.027343 0.074219 -0.054687 0.152344 -0.078125 0.230469 z m 0 0" fill="url(#a)"/>
    <path d="m 64 4.429688 c -9.941406 0 -18 8.0625 -18 18 c 0.007812 5.894531 2.902344 11.410156 7.742188 14.769531 l 9.257812 5.4375 l 1 0.578125 c 2.773438 1.566406 5.953125 3.417968 8.535156 4.960937 c 5.796875 3.121094 9.457032 9.1875 9.464844 15.824219 v -41.570312 c 0 -9.9375 -8.058594 -18 -18 -18 z m 17.933594 19.453124 c -0.023438 0.28125 -0.066406 0.5625 -0.101563 0.84375 c 0.039063 -0.28125 0.074219 -0.5625 0.101563 -0.84375 z m -0.9375 4.410157 c -0.027344 0.078125 -0.046875 0.15625 -0.074219 0.230469 l -0.003906 0.003906 c 0.027343 -0.078125 0.054687 -0.15625 0.078125 -0.230469 z m 0 0" fill="url(#b)"/>
    <path d="m 12.410156 93.785156 c 4.972656 8.609375 15.980469 11.558594 24.589844 6.589844 c 5.097656 -2.957031 8.429688 -8.21875 8.914062 -14.089844 l 0.085938 -10.738281 v -1.152344 c -0.03125 -3.1875 -0.019531 -6.867187 0.027344 -9.871093 c -0.195313 -6.585938 3.226562 -12.785157 8.972656 -16.109376 l -27 15.585938 l -4.070312 2.351562 l -4.929688 2.84375 c -8.609375 4.972657 -11.558594 15.980469 -6.589844 24.589844 z m 7.878906 -25.257812 c 0.257813 -0.121094 0.519532 -0.222656 0.78125 -0.332032 c -0.261718 0.105469 -0.523437 0.214844 -0.78125 0.332032 z m 4.289063 -1.394532 c 0.082031 -0.011718 0.15625 -0.035156 0.234375 -0.050781 l 0.003906 0.003907 c -0.078125 0.015624 -0.15625 0.03125 -0.234375 0.046874 z m 0 0" fill="url(#c)"/>
    <path d="m 115.589844 34.214844 c -4.972656 -8.609375 -15.980469 -11.558594 -24.589844 -6.585938 c -5.097656 2.953125 -8.429688 8.214844 -8.914062 14.089844 l -0.085938 10.738281 v 1.152344 c 0.03125 3.183594 0.019531 6.863281 -0.027344 9.871094 c 0.195313 6.582031 -3.226562 12.78125 -8.972656 16.109375 l 9 -5.199219 l 18 -10.390625 l 4.070312 -2.347656 l 4.929688 -2.847656 c 8.609375 -4.972657 11.558594 -15.980469 6.589844 -24.589844 z m -7.878906 25.257812 c -0.257813 0.121094 -0.519532 0.222656 -0.78125 0.332032 c 0.261718 -0.105469 0.523437 -0.214844 0.78125 -0.332032 z m -4.289063 1.394532 c -0.082031 0.015624 -0.15625 0.039062 -0.234375 0.050781 h -0.003906 c 0.078125 -0.015625 0.15625 -0.035157 0.234375 -0.050781 z m 0 0" fill="url(#d)"/>
    <path d="m 12.410156 34.214844 c -4.96875 8.609375 -2.019531 19.617187 6.589844 24.589844 c 5.109375 2.9375 11.332031 3.191406 16.660156 0.675781 l 9.339844 -5.296875 l 1 -0.574219 c 2.742188 -1.621094 5.933594 -3.449219 8.5625 -4.910156 c 5.601562 -3.464844 12.683594 -3.597657 18.4375 -0.289063 l -27 -15.585937 l -4.070312 -2.351563 l -4.929688 -2.84375 c -8.609375 -4.972656 -19.617188 -2.023437 -24.589844 6.585938 z m 25.8125 -5.804688 c 0.234375 0.164063 0.457032 0.335938 0.679688 0.507813 c -0.222656 -0.171875 -0.449219 -0.34375 -0.679688 -0.507813 z m 3.351563 3.019532 c 0.054687 0.058593 0.113281 0.113281 0.164062 0.175781 v 0.003906 c -0.054687 -0.0625 -0.109375 -0.121094 -0.160156 -0.179687 z m 0 0" fill="url(#e)"/>
    <path d="m 115.589844 93.785156 c 4.96875 -8.609375 2.019531 -19.617187 -6.589844 -24.589844 c -5.109375 -2.9375 -11.332031 -3.191406 -16.660156 -0.675781 l -9.339844 5.296875 l -1 0.578125 c -2.742188 1.617188 -5.933594 3.445313 -8.5625 4.910157 c -5.601562 3.460937 -12.683594 3.59375 -18.4375 0.285156 l 9 5.195312 l 18 10.394532 l 4.070312 2.347656 l 4.929688 2.847656 c 8.609375 4.96875 19.617188 2.019531 24.589844 -6.589844 z m -25.8125 5.804688 c -0.234375 -0.160156 -0.457032 -0.335938 -0.679688 -0.507813 c 0.222656 0.175781 0.449219 0.34375 0.679688 0.507813 z m -3.351563 -3.019532 c -0.054687 -0.058593 -0.113281 -0.113281 -0.164062 -0.175781 v -0.003906 c 0.054687 0.0625 0.109375 0.121094 0.160156 0.183594 z m 0 0" fill="url(#f)"/>
    <path d="m 46 53.609375 v 20.78125 l 18 10.394531 l 18 -10.394531 v -20.78125 l -18 -10.394531 z m 0 0" fill="#241f31"/>
</svg>
