<?xml version="1.0" encoding="UTF-8" standalone="no"?>
<!-- Created with Inkscape (http://www.inkscape.org/) -->

<svg
   width="2000"
   height="1200"
   viewBox="0 0 2000 1200"
   id="svg2"
   version="1.1"
   inkscape:version="1.2.1 (9c6d41e410, 2022-07-14)"
   sodipodi:docname="list-generic.svg"
   inkscape:export-filename="../list-generic.png"
   inkscape:export-xdpi="96"
   inkscape:export-ydpi="96"
   xmlns:inkscape="http://www.inkscape.org/namespaces/inkscape"
   xmlns:sodipodi="http://sodipodi.sourceforge.net/DTD/sodipodi-0.dtd"
   xmlns="http://www.w3.org/2000/svg"
   xmlns:svg="http://www.w3.org/2000/svg"
   xmlns:rdf="http://www.w3.org/1999/02/22-rdf-syntax-ns#"
   xmlns:cc="http://creativecommons.org/ns#"
   xmlns:dc="http://purl.org/dc/elements/1.1/">
  <defs
     id="defs4">
    <clipPath
       clipPathUnits="userSpaceOnUse"
       id="clipPath4599">
      <circle
         r="50.799999"
         cy="229.26665"
         cx="67.73333"
         id="circle4601"
         style="opacity:1;fill:#635b82;fill-opacity:1;stroke:none;stroke-width:0.529167;stroke-linecap:round;stroke-linejoin:miter;stroke-miterlimit:4;stroke-dasharray:none;stroke-dashoffset:0;stroke-opacity:1" />
    </clipPath>
    <clipPath
       clipPathUnits="userSpaceOnUse"
       id="clipPath4624">
      <path
         style="color:#000000;font-style:normal;font-variant:normal;font-weight:normal;font-stretch:normal;font-size:medium;line-height:normal;font-family:sans-serif;text-indent:0;text-align:start;text-decoration:none;text-decoration-line:none;text-decoration-style:solid;text-decoration-color:#000000;letter-spacing:normal;word-spacing:normal;text-transform:none;writing-mode:lr-tb;direction:ltr;baseline-shift:baseline;text-anchor:start;white-space:normal;shape-padding:0;clip-rule:nonzero;display:inline;overflow:visible;visibility:visible;opacity:1;isolation:auto;mix-blend-mode:normal;color-interpolation:sRGB;color-interpolation-filters:linearRGB;solid-color:#000000;solid-opacity:1;fill:#ededed;fill-opacity:1;fill-rule:nonzero;stroke:none;stroke-width:2.11667;stroke-linecap:round;stroke-linejoin:round;stroke-miterlimit:4;stroke-dasharray:none;stroke-dashoffset:0;stroke-opacity:1;color-rendering:auto;image-rendering:auto;shape-rendering:auto;text-rendering:auto;enable-background:accumulate"
         d="m 66.464844,121.31641 c -0.166029,-9.4e-4 -0.329949,0.0372 -0.478516,0.11132 0,0 -17.413222,8.75537 -21.734375,31.44141 -2.377685,12.48284 0.802049,33.95579 2.148438,44.54492 0.978798,7.6981 2.089843,13.01953 2.089843,13.01953 0.102489,0.49013 0.534422,0.84139 1.035157,0.8418 h 31.75 c 0.487305,-3.3e-4 0.911415,-0.33332 1.027343,-0.80664 0,0 1.265381,-5.16939 2.328125,-12.89063 1.398164,-10.15816 4.286935,-31.08304 1.919922,-44.69335 C 84.401063,140.52389 79.537234,132.64711 75.177734,127.87891 70.818235,123.1107 66.875,121.40234 66.875,121.40234 c -0.129627,-0.0557 -0.269079,-0.0849 -0.410156,-0.0859 z"
         id="path4626"
         inkscape:connector-curvature="0"
         sodipodi:nodetypes="ccssccccsssccc" />
    </clipPath>
    <clipPath
       clipPathUnits="userSpaceOnUse"
       id="clipPath4880">
      <circle
         r="46.991886"
         cy="96.880188"
         cx="-174.21211"
         id="circle4882"
         style="opacity:1;fill:#aaccf9;fill-opacity:1;stroke:none;stroke-width:2.11667;stroke-linecap:round;stroke-linejoin:round;stroke-miterlimit:4;stroke-dasharray:none;stroke-dashoffset:0;stroke-opacity:1"
         transform="rotate(-45)" />
    </clipPath>
    <clipPath
       clipPathUnits="userSpaceOnUse"
       id="clipPath4340">
      <rect
         style="fill:#424242;fill-opacity:1;stroke:#1b1b1b;stroke-width:0;stroke-opacity:1"
         id="rect4342"
         width="52.916664"
         height="52.916664"
         x="79.639587"
         y="111.12493"
         rx="2.3812499"
         ry="2.3812499" />
    </clipPath>
    <clipPath
       clipPathUnits="userSpaceOnUse"
       id="clipPath2971">
      <rect
         style="fill:#424242;fill-opacity:1;stroke:#1b1b1b;stroke-width:0;stroke-opacity:1"
         id="rect2973"
         width="52.916664"
         height="52.916664"
         x="121.97289"
         y="141.81659"
         rx="2.3812499"
         ry="2.3812499" />
    </clipPath>
    <clipPath
       clipPathUnits="userSpaceOnUse"
       id="clipPath3415">
      <rect
         style="fill:#424242;fill-opacity:1;stroke:#1b1b1b;stroke-width:0;stroke-opacity:1"
         id="rect3417"
         width="52.916664"
         height="52.916664"
         x="196.05629"
         y="111.12493"
         rx="2.3812499"
         ry="2.3812499" />
    </clipPath>
    <clipPath
       clipPathUnits="userSpaceOnUse"
       id="clipPath3535">
      <rect
         style="fill:#424242;fill-opacity:1;stroke:#1b1b1b;stroke-width:0;stroke-opacity:1"
         id="rect3537"
         width="52.916664"
         height="52.916664"
         x="254.26468"
         y="111.12493"
         rx="2.3812499"
         ry="2.3812499" />
    </clipPath>
  </defs>
  <sodipodi:namedview
     id="base"
     pagecolor="#ffffff"
     bordercolor="#666666"
     borderopacity="1.0"
     inkscape:pageopacity="1"
     inkscape:pageshadow="2"
     inkscape:zoom="0.5"
     inkscape:cx="894"
     inkscape:cy="594"
     inkscape:document-units="px"
     inkscape:current-layer="layer1"
     showgrid="false"
     units="px"
     inkscape:window-width="1920"
     inkscape:window-height="1011"
     inkscape:window-x="0"
     inkscape:window-y="0"
     inkscape:window-maximized="1"
     inkscape:snap-bbox="true"
     inkscape:bbox-paths="true"
     inkscape:snap-bbox-midpoints="true"
     inkscape:snap-intersection-paths="true"
     inkscape:object-paths="true"
     inkscape:object-nodes="true"
     inkscape:snap-smooth-nodes="true"
     inkscape:snap-midpoints="true"
     inkscape:bbox-nodes="true"
     inkscape:snap-global="true"
     inkscape:showpageshadow="2"
     inkscape:pagecheckerboard="0"
     inkscape:deskcolor="#d1d1d1">
    <inkscape:grid
       type="xygrid"
       id="grid4514"
       empspacing="4"
       originx="0"
       originy="0" />
  </sodipodi:namedview>
  <metadata
     id="metadata7">
    <rdf:RDF>
      <cc:Work
         rdf:about="">
        <dc:format>image/svg+xml</dc:format>
        <dc:type
           rdf:resource="http://purl.org/dc/dcmitype/StillImage" />
      </cc:Work>
    </rdf:RDF>
  </metadata>
  <g
     inkscape:label="Layer 1"
     inkscape:groupmode="layer"
     id="layer1"
     transform="translate(0,-161.53331)">
    <rect
       y="338.03333"
       x="112.5"
       height="599"
       width="799"
       id="rect3778"
       style="display:inline;fill:#f6f5f4;fill-opacity:1;stroke:#d0d0d0;stroke-width:0.999987;stroke-linecap:square;stroke-miterlimit:4;stroke-dasharray:none;stroke-dashoffset:0;stroke-opacity:1" />
    <g
       id="g17284"
       transform="translate(48,112)">
      <rect
         style="opacity:0.6;fill:#f6f5f4;fill-opacity:1;stroke:none;stroke-width:4.26667;stroke-linecap:round;stroke-linejoin:round;stroke-dashoffset:2"
         id="rect17252"
         width="672"
         height="64.000015"
         x="128"
         y="321.53333" />
      <text
         id="text17256"
         y="358.87933"
         x="212.82458"
         style="font-style:normal;font-variant:normal;font-weight:normal;font-stretch:normal;font-size:14.6667px;line-height:0%;font-family:Cantarell;-inkscape-font-specification:Cantarell;text-align:start;letter-spacing:0px;word-spacing:0px;text-anchor:start;display:inline;fill:#2e3436;fill-opacity:1;stroke:none;stroke-width:0.999999"
         xml:space="preserve"><tspan
           y="358.87933"
           x="212.82458"
           id="tspan17254"
           sodipodi:role="line"
           style="font-size:14.6667px;line-height:1.25;text-align:start;text-anchor:start;fill:#2e3436;stroke-width:0.999999">Track</tspan></text>
      <rect
         style="opacity:0.6;fill:#c0bfbc;stroke:none;stroke-width:1;stroke-linecap:round;stroke-linejoin:round;stroke-dasharray:none;stroke-dashoffset:2"
         id="rect17258"
         width="48"
         height="47.999985"
         x="136"
         y="329.53333"
         ry="6" />
      <path
         style="fill:none;stroke:#d5d5d3;stroke-width:1px;stroke-linecap:butt;stroke-linejoin:miter;stroke-opacity:1"
         d="M 200,385.03331 H 800"
         id="path17260"
         sodipodi:nodetypes="cc" />
      <rect
         style="opacity:0.6;fill:#f6f5f4;fill-opacity:1;stroke:none;stroke-width:1;stroke-linecap:round;stroke-linejoin:round;stroke-dasharray:none;stroke-dashoffset:2"
         id="rect17262"
         width="32"
         height="31.99999"
         x="768"
         y="337.53333"
         ry="6" />
      <g
         transform="matrix(3.7795274,0,0,3.7795274,272.99846,1180.0145)"
         id="g17270">
        <rect
           y="-220.78981"
           x="133.08583"
           height="4.2333331"
           width="4.2333331"
           id="rect17264"
           style="color:#bebebe;display:inline;overflow:visible;visibility:visible;fill:none;stroke:none;stroke-width:0.264583;marker:none" />
        <g
           transform="matrix(0.26458333,0,0,0.26458333,133.08736,-220.78981)"
           fill="#2e3436"
           id="g17268">
          <path
             inkscape:connector-curvature="0"
             d="m 9.994,2 a 2,2 0 0 1 -2,2 2,2 0 0 1 -2,-2 2,2 0 0 1 2,-2 2,2 0 0 1 2,2 z m 0,6 a 2,2 0 0 1 -2,2 2,2 0 0 1 -2,-2 2,2 0 0 1 2,-2 2,2 0 0 1 2,2 z m 0,6 a 2,2 0 0 1 -2,2 2,2 0 0 1 -2,-2 2,2 0 0 1 2,-2 2,2 0 0 1 2,2 z"
             id="path17266" />
        </g>
      </g>
      <text
         id="text17274"
         y="358.87933"
         x="352.82458"
         style="font-style:normal;font-variant:normal;font-weight:normal;font-stretch:normal;font-size:14.6667px;line-height:0%;font-family:Cantarell;-inkscape-font-specification:Cantarell;text-align:start;letter-spacing:0px;word-spacing:0px;text-anchor:start;display:inline;fill:#2e3436;fill-opacity:1;stroke:none;stroke-width:0.999999"
         xml:space="preserve"><tspan
           y="358.87933"
           x="352.82458"
           id="tspan17272"
           sodipodi:role="line"
           style="font-size:14.6667px;line-height:1.25;text-align:start;text-anchor:start;fill:#2e3436;stroke-width:0.999999">Artist Name</tspan></text>
      <text
         id="text17278"
         y="358.65933"
         x="512.82458"
         style="font-style:normal;font-variant:normal;font-weight:normal;font-stretch:normal;font-size:14.6667px;line-height:0%;font-family:Cantarell;-inkscape-font-specification:Cantarell;text-align:start;letter-spacing:0px;word-spacing:0px;text-anchor:start;display:inline;fill:#2e3436;fill-opacity:1;stroke:none;stroke-width:0.999999"
         xml:space="preserve"><tspan
           y="358.65933"
           x="512.82458"
           id="tspan17276"
           sodipodi:role="line"
           style="font-size:14.6667px;line-height:1.25;text-align:start;text-anchor:start;fill:#2e3436;stroke-width:0.999999">Album Title</tspan></text>
      <text
         id="text17282"
         y="358.62268"
         x="720.83789"
         style="font-style:normal;font-variant:normal;font-weight:normal;font-stretch:normal;font-size:14.6667px;line-height:0%;font-family:Cantarell;-inkscape-font-specification:Cantarell;text-align:end;letter-spacing:0px;word-spacing:0px;text-anchor:end;display:inline;fill:#2e3436;fill-opacity:1;stroke:none;stroke-width:0.999999"
         xml:space="preserve"><tspan
           y="358.62268"
           x="720.83789"
           id="tspan17280"
           sodipodi:role="line"
           style="font-size:14.6667px;line-height:1.25;text-align:end;text-anchor:end;fill:#2e3436;stroke-width:0.999999">4:56</tspan></text>
    </g>
    <g
       id="g16158"
       transform="translate(48,176)">
      <rect
         style="opacity:0.6;fill:#f6f5f4;fill-opacity:1;stroke:none;stroke-width:4.26667;stroke-linecap:round;stroke-linejoin:round;stroke-dashoffset:2"
         id="rect16126"
         width="672"
         height="64.000015"
         x="128"
         y="321.53333" />
      <text
         id="text16130"
         y="358.87933"
         x="212.82458"
         style="font-style:normal;font-variant:normal;font-weight:normal;font-stretch:normal;font-size:14.6667px;line-height:0%;font-family:Cantarell;-inkscape-font-specification:Cantarell;text-align:start;letter-spacing:0px;word-spacing:0px;text-anchor:start;display:inline;fill:#2e3436;fill-opacity:1;stroke:none;stroke-width:0.999999"
         xml:space="preserve"><tspan
           y="358.87933"
           x="212.82458"
           id="tspan16128"
           sodipodi:role="line"
           style="font-size:14.6667px;line-height:1.25;text-align:start;text-anchor:start;fill:#2e3436;stroke-width:0.999999">Track</tspan></text>
      <rect
         style="opacity:0.6;fill:#c0bfbc;stroke:none;stroke-width:1;stroke-linecap:round;stroke-linejoin:round;stroke-dasharray:none;stroke-dashoffset:2"
         id="rect16132"
         width="48"
         height="47.999985"
         x="136"
         y="329.53333"
         ry="6" />
      <path
         style="fill:none;stroke:#d5d5d3;stroke-width:1px;stroke-linecap:butt;stroke-linejoin:miter;stroke-opacity:1"
         d="M 200,385.03331 H 800"
         id="path16134"
         sodipodi:nodetypes="cc" />
      <rect
         style="opacity:0.6;fill:#f6f5f4;fill-opacity:1;stroke:none;stroke-width:1;stroke-linecap:round;stroke-linejoin:round;stroke-dasharray:none;stroke-dashoffset:2"
         id="rect16136"
         width="32"
         height="31.99999"
         x="768"
         y="337.53333"
         ry="6" />
      <g
         transform="matrix(3.7795274,0,0,3.7795274,272.99846,1180.0145)"
         id="g16144">
        <rect
           y="-220.78981"
           x="133.08583"
           height="4.2333331"
           width="4.2333331"
           id="rect16138"
           style="color:#bebebe;display:inline;overflow:visible;visibility:visible;fill:none;stroke:none;stroke-width:0.264583;marker:none" />
        <g
           transform="matrix(0.26458333,0,0,0.26458333,133.08736,-220.78981)"
           fill="#2e3436"
           id="g16142">
          <path
             inkscape:connector-curvature="0"
             d="m 9.994,2 a 2,2 0 0 1 -2,2 2,2 0 0 1 -2,-2 2,2 0 0 1 2,-2 2,2 0 0 1 2,2 z m 0,6 a 2,2 0 0 1 -2,2 2,2 0 0 1 -2,-2 2,2 0 0 1 2,-2 2,2 0 0 1 2,2 z m 0,6 a 2,2 0 0 1 -2,2 2,2 0 0 1 -2,-2 2,2 0 0 1 2,-2 2,2 0 0 1 2,2 z"
             id="path16140" />
        </g>
      </g>
      <text
         id="text16148"
         y="358.87933"
         x="352.82458"
         style="font-style:normal;font-variant:normal;font-weight:normal;font-stretch:normal;font-size:14.6667px;line-height:0%;font-family:Cantarell;-inkscape-font-specification:Cantarell;text-align:start;letter-spacing:0px;word-spacing:0px;text-anchor:start;display:inline;fill:#2e3436;fill-opacity:1;stroke:none;stroke-width:0.999999"
         xml:space="preserve"><tspan
           y="358.87933"
           x="352.82458"
           id="tspan16146"
           sodipodi:role="line"
           style="font-size:14.6667px;line-height:1.25;text-align:start;text-anchor:start;fill:#2e3436;stroke-width:0.999999">Artist Name</tspan></text>
      <text
         id="text16152"
         y="358.65933"
         x="512.82458"
         style="font-style:normal;font-variant:normal;font-weight:normal;font-stretch:normal;font-size:14.6667px;line-height:0%;font-family:Cantarell;-inkscape-font-specification:Cantarell;text-align:start;letter-spacing:0px;word-spacing:0px;text-anchor:start;display:inline;fill:#2e3436;fill-opacity:1;stroke:none;stroke-width:0.999999"
         xml:space="preserve"><tspan
           y="358.65933"
           x="512.82458"
           id="tspan16150"
           sodipodi:role="line"
           style="font-size:14.6667px;line-height:1.25;text-align:start;text-anchor:start;fill:#2e3436;stroke-width:0.999999">Album Title</tspan></text>
      <text
         id="text16156"
         y="358.62268"
         x="720.83789"
         style="font-style:normal;font-variant:normal;font-weight:normal;font-stretch:normal;font-size:14.6667px;line-height:0%;font-family:Cantarell;-inkscape-font-specification:Cantarell;text-align:end;letter-spacing:0px;word-spacing:0px;text-anchor:end;display:inline;fill:#2e3436;fill-opacity:1;stroke:none;stroke-width:0.999999"
         xml:space="preserve"><tspan
           y="358.62268"
           x="720.83789"
           id="tspan16154"
           sodipodi:role="line"
           style="font-size:14.6667px;line-height:1.25;text-align:end;text-anchor:end;fill:#2e3436;stroke-width:0.999999">4:56</tspan></text>
    </g>
    <g
       id="g16192"
       transform="translate(48,240.00002)">
      <rect
         style="opacity:0.6;fill:#f6f5f4;fill-opacity:1;stroke:none;stroke-width:4.26667;stroke-linecap:round;stroke-linejoin:round;stroke-dashoffset:2"
         id="rect16160"
         width="672"
         height="64.000015"
         x="128"
         y="321.53333" />
      <text
         id="text16164"
         y="358.87933"
         x="212.82458"
         style="font-style:normal;font-variant:normal;font-weight:normal;font-stretch:normal;font-size:14.6667px;line-height:0%;font-family:Cantarell;-inkscape-font-specification:Cantarell;text-align:start;letter-spacing:0px;word-spacing:0px;text-anchor:start;display:inline;fill:#2e3436;fill-opacity:1;stroke:none;stroke-width:0.999999"
         xml:space="preserve"><tspan
           y="358.87933"
           x="212.82458"
           id="tspan16162"
           sodipodi:role="line"
           style="font-size:14.6667px;line-height:1.25;text-align:start;text-anchor:start;fill:#2e3436;stroke-width:0.999999">Track</tspan></text>
      <rect
         style="opacity:0.6;fill:#c0bfbc;stroke:none;stroke-width:1;stroke-linecap:round;stroke-linejoin:round;stroke-dasharray:none;stroke-dashoffset:2"
         id="rect16166"
         width="48"
         height="47.999985"
         x="136"
         y="329.53333"
         ry="6" />
      <path
         style="fill:none;stroke:#d5d5d3;stroke-width:1px;stroke-linecap:butt;stroke-linejoin:miter;stroke-opacity:1"
         d="M 200,385.03331 H 800"
         id="path16168"
         sodipodi:nodetypes="cc" />
      <rect
         style="opacity:0.6;fill:#f6f5f4;fill-opacity:1;stroke:none;stroke-width:1;stroke-linecap:round;stroke-linejoin:round;stroke-dasharray:none;stroke-dashoffset:2"
         id="rect16170"
         width="32"
         height="31.99999"
         x="768"
         y="337.53333"
         ry="6" />
      <g
         transform="matrix(3.7795274,0,0,3.7795274,272.99846,1180.0145)"
         id="g16178">
        <rect
           y="-220.78981"
           x="133.08583"
           height="4.2333331"
           width="4.2333331"
           id="rect16172"
           style="color:#bebebe;display:inline;overflow:visible;visibility:visible;fill:none;stroke:none;stroke-width:0.264583;marker:none" />
        <g
           transform="matrix(0.26458333,0,0,0.26458333,133.08736,-220.78981)"
           fill="#2e3436"
           id="g16176">
          <path
             inkscape:connector-curvature="0"
             d="m 9.994,2 a 2,2 0 0 1 -2,2 2,2 0 0 1 -2,-2 2,2 0 0 1 2,-2 2,2 0 0 1 2,2 z m 0,6 a 2,2 0 0 1 -2,2 2,2 0 0 1 -2,-2 2,2 0 0 1 2,-2 2,2 0 0 1 2,2 z m 0,6 a 2,2 0 0 1 -2,2 2,2 0 0 1 -2,-2 2,2 0 0 1 2,-2 2,2 0 0 1 2,2 z"
             id="path16174" />
        </g>
      </g>
      <text
         id="text16182"
         y="358.87933"
         x="352.82458"
         style="font-style:normal;font-variant:normal;font-weight:normal;font-stretch:normal;font-size:14.6667px;line-height:0%;font-family:Cantarell;-inkscape-font-specification:Cantarell;text-align:start;letter-spacing:0px;word-spacing:0px;text-anchor:start;display:inline;fill:#2e3436;fill-opacity:1;stroke:none;stroke-width:0.999999"
         xml:space="preserve"><tspan
           y="358.87933"
           x="352.82458"
           id="tspan16180"
           sodipodi:role="line"
           style="font-size:14.6667px;line-height:1.25;text-align:start;text-anchor:start;fill:#2e3436;stroke-width:0.999999">Artist Name</tspan></text>
      <text
         id="text16186"
         y="358.65933"
         x="512.82458"
         style="font-style:normal;font-variant:normal;font-weight:normal;font-stretch:normal;font-size:14.6667px;line-height:0%;font-family:Cantarell;-inkscape-font-specification:Cantarell;text-align:start;letter-spacing:0px;word-spacing:0px;text-anchor:start;display:inline;fill:#2e3436;fill-opacity:1;stroke:none;stroke-width:0.999999"
         xml:space="preserve"><tspan
           y="358.65933"
           x="512.82458"
           id="tspan16184"
           sodipodi:role="line"
           style="font-size:14.6667px;line-height:1.25;text-align:start;text-anchor:start;fill:#2e3436;stroke-width:0.999999">Album Title</tspan></text>
      <text
         id="text16190"
         y="358.62268"
         x="720.83789"
         style="font-style:normal;font-variant:normal;font-weight:normal;font-stretch:normal;font-size:14.6667px;line-height:0%;font-family:Cantarell;-inkscape-font-specification:Cantarell;text-align:end;letter-spacing:0px;word-spacing:0px;text-anchor:end;display:inline;fill:#2e3436;fill-opacity:1;stroke:none;stroke-width:0.999999"
         xml:space="preserve"><tspan
           y="358.62268"
           x="720.83789"
           id="tspan16188"
           sodipodi:role="line"
           style="font-size:14.6667px;line-height:1.25;text-align:end;text-anchor:end;fill:#2e3436;stroke-width:0.999999">4:56</tspan></text>
    </g>
    <g
       id="g16226"
       transform="translate(48,304.00004)">
      <rect
         style="opacity:0.6;fill:#f6f5f4;fill-opacity:1;stroke:none;stroke-width:4.26667;stroke-linecap:round;stroke-linejoin:round;stroke-dashoffset:2"
         id="rect16194"
         width="672"
         height="64.000015"
         x="128"
         y="321.53333" />
      <text
         id="text16198"
         y="358.87933"
         x="212.82458"
         style="font-style:normal;font-variant:normal;font-weight:normal;font-stretch:normal;font-size:14.6667px;line-height:0%;font-family:Cantarell;-inkscape-font-specification:Cantarell;text-align:start;letter-spacing:0px;word-spacing:0px;text-anchor:start;display:inline;fill:#2e3436;fill-opacity:1;stroke:none;stroke-width:0.999999"
         xml:space="preserve"><tspan
           y="358.87933"
           x="212.82458"
           id="tspan16196"
           sodipodi:role="line"
           style="font-size:14.6667px;line-height:1.25;text-align:start;text-anchor:start;fill:#2e3436;stroke-width:0.999999">Track</tspan></text>
      <rect
         style="opacity:0.6;fill:#c0bfbc;stroke:none;stroke-width:1;stroke-linecap:round;stroke-linejoin:round;stroke-dasharray:none;stroke-dashoffset:2"
         id="rect16200"
         width="48"
         height="47.999985"
         x="136"
         y="329.53333"
         ry="6" />
      <path
         style="fill:none;stroke:#d5d5d3;stroke-width:1px;stroke-linecap:butt;stroke-linejoin:miter;stroke-opacity:1"
         d="M 200,385.03331 H 800"
         id="path16202"
         sodipodi:nodetypes="cc" />
      <rect
         style="opacity:0.6;fill:#f6f5f4;fill-opacity:1;stroke:none;stroke-width:1;stroke-linecap:round;stroke-linejoin:round;stroke-dasharray:none;stroke-dashoffset:2"
         id="rect16204"
         width="32"
         height="31.99999"
         x="768"
         y="337.53333"
         ry="6" />
      <g
         transform="matrix(3.7795274,0,0,3.7795274,272.99846,1180.0145)"
         id="g16212">
        <rect
           y="-220.78981"
           x="133.08583"
           height="4.2333331"
           width="4.2333331"
           id="rect16206"
           style="color:#bebebe;display:inline;overflow:visible;visibility:visible;fill:none;stroke:none;stroke-width:0.264583;marker:none" />
        <g
           transform="matrix(0.26458333,0,0,0.26458333,133.08736,-220.78981)"
           fill="#2e3436"
           id="g16210">
          <path
             inkscape:connector-curvature="0"
             d="m 9.994,2 a 2,2 0 0 1 -2,2 2,2 0 0 1 -2,-2 2,2 0 0 1 2,-2 2,2 0 0 1 2,2 z m 0,6 a 2,2 0 0 1 -2,2 2,2 0 0 1 -2,-2 2,2 0 0 1 2,-2 2,2 0 0 1 2,2 z m 0,6 a 2,2 0 0 1 -2,2 2,2 0 0 1 -2,-2 2,2 0 0 1 2,-2 2,2 0 0 1 2,2 z"
             id="path16208" />
        </g>
      </g>
      <text
         id="text16216"
         y="358.87933"
         x="352.82458"
         style="font-style:normal;font-variant:normal;font-weight:normal;font-stretch:normal;font-size:14.6667px;line-height:0%;font-family:Cantarell;-inkscape-font-specification:Cantarell;text-align:start;letter-spacing:0px;word-spacing:0px;text-anchor:start;display:inline;fill:#2e3436;fill-opacity:1;stroke:none;stroke-width:0.999999"
         xml:space="preserve"><tspan
           y="358.87933"
           x="352.82458"
           id="tspan16214"
           sodipodi:role="line"
           style="font-size:14.6667px;line-height:1.25;text-align:start;text-anchor:start;fill:#2e3436;stroke-width:0.999999">Artist Name</tspan></text>
      <text
         id="text16220"
         y="358.65933"
         x="512.82458"
         style="font-style:normal;font-variant:normal;font-weight:normal;font-stretch:normal;font-size:14.6667px;line-height:0%;font-family:Cantarell;-inkscape-font-specification:Cantarell;text-align:start;letter-spacing:0px;word-spacing:0px;text-anchor:start;display:inline;fill:#2e3436;fill-opacity:1;stroke:none;stroke-width:0.999999"
         xml:space="preserve"><tspan
           y="358.65933"
           x="512.82458"
           id="tspan16218"
           sodipodi:role="line"
           style="font-size:14.6667px;line-height:1.25;text-align:start;text-anchor:start;fill:#2e3436;stroke-width:0.999999">Album Title</tspan></text>
      <text
         id="text16224"
         y="358.62268"
         x="720.83789"
         style="font-style:normal;font-variant:normal;font-weight:normal;font-stretch:normal;font-size:14.6667px;line-height:0%;font-family:Cantarell;-inkscape-font-specification:Cantarell;text-align:end;letter-spacing:0px;word-spacing:0px;text-anchor:end;display:inline;fill:#2e3436;fill-opacity:1;stroke:none;stroke-width:0.999999"
         xml:space="preserve"><tspan
           y="358.62268"
           x="720.83789"
           id="tspan16222"
           sodipodi:role="line"
           style="font-size:14.6667px;line-height:1.25;text-align:end;text-anchor:end;fill:#2e3436;stroke-width:0.999999">4:56</tspan></text>
    </g>
    <g
       id="g16260"
       transform="translate(48,368.00006)">
      <rect
         style="opacity:0.6;fill:#f6f5f4;fill-opacity:1;stroke:none;stroke-width:4.26667;stroke-linecap:round;stroke-linejoin:round;stroke-dashoffset:2"
         id="rect16228"
         width="672"
         height="64.000015"
         x="128"
         y="321.53333" />
      <text
         id="text16232"
         y="358.87933"
         x="212.82458"
         style="font-style:normal;font-variant:normal;font-weight:normal;font-stretch:normal;font-size:14.6667px;line-height:0%;font-family:Cantarell;-inkscape-font-specification:Cantarell;text-align:start;letter-spacing:0px;word-spacing:0px;text-anchor:start;display:inline;fill:#2e3436;fill-opacity:1;stroke:none;stroke-width:0.999999"
         xml:space="preserve"><tspan
           y="358.87933"
           x="212.82458"
           id="tspan16230"
           sodipodi:role="line"
           style="font-size:14.6667px;line-height:1.25;text-align:start;text-anchor:start;fill:#2e3436;stroke-width:0.999999">Track</tspan></text>
      <rect
         style="opacity:0.6;fill:#c0bfbc;stroke:none;stroke-width:1;stroke-linecap:round;stroke-linejoin:round;stroke-dasharray:none;stroke-dashoffset:2"
         id="rect16234"
         width="48"
         height="47.999985"
         x="136"
         y="329.53333"
         ry="6" />
      <path
         style="fill:none;stroke:#d5d5d3;stroke-width:1px;stroke-linecap:butt;stroke-linejoin:miter;stroke-opacity:1"
         d="M 200,385.03331 H 800"
         id="path16236"
         sodipodi:nodetypes="cc" />
      <rect
         style="opacity:0.6;fill:#f6f5f4;fill-opacity:1;stroke:none;stroke-width:1;stroke-linecap:round;stroke-linejoin:round;stroke-dasharray:none;stroke-dashoffset:2"
         id="rect16238"
         width="32"
         height="31.99999"
         x="768"
         y="337.53333"
         ry="6" />
      <g
         transform="matrix(3.7795274,0,0,3.7795274,272.99846,1180.0145)"
         id="g16246">
        <rect
           y="-220.78981"
           x="133.08583"
           height="4.2333331"
           width="4.2333331"
           id="rect16240"
           style="color:#bebebe;display:inline;overflow:visible;visibility:visible;fill:none;stroke:none;stroke-width:0.264583;marker:none" />
        <g
           transform="matrix(0.26458333,0,0,0.26458333,133.08736,-220.78981)"
           fill="#2e3436"
           id="g16244">
          <path
             inkscape:connector-curvature="0"
             d="m 9.994,2 a 2,2 0 0 1 -2,2 2,2 0 0 1 -2,-2 2,2 0 0 1 2,-2 2,2 0 0 1 2,2 z m 0,6 a 2,2 0 0 1 -2,2 2,2 0 0 1 -2,-2 2,2 0 0 1 2,-2 2,2 0 0 1 2,2 z m 0,6 a 2,2 0 0 1 -2,2 2,2 0 0 1 -2,-2 2,2 0 0 1 2,-2 2,2 0 0 1 2,2 z"
             id="path16242" />
        </g>
      </g>
      <text
         id="text16250"
         y="358.87933"
         x="352.82458"
         style="font-style:normal;font-variant:normal;font-weight:normal;font-stretch:normal;font-size:14.6667px;line-height:0%;font-family:Cantarell;-inkscape-font-specification:Cantarell;text-align:start;letter-spacing:0px;word-spacing:0px;text-anchor:start;display:inline;fill:#2e3436;fill-opacity:1;stroke:none;stroke-width:0.999999"
         xml:space="preserve"><tspan
           y="358.87933"
           x="352.82458"
           id="tspan16248"
           sodipodi:role="line"
           style="font-size:14.6667px;line-height:1.25;text-align:start;text-anchor:start;fill:#2e3436;stroke-width:0.999999">Artist Name</tspan></text>
      <text
         id="text16254"
         y="358.65933"
         x="512.82458"
         style="font-style:normal;font-variant:normal;font-weight:normal;font-stretch:normal;font-size:14.6667px;line-height:0%;font-family:Cantarell;-inkscape-font-specification:Cantarell;text-align:start;letter-spacing:0px;word-spacing:0px;text-anchor:start;display:inline;fill:#2e3436;fill-opacity:1;stroke:none;stroke-width:0.999999"
         xml:space="preserve"><tspan
           y="358.65933"
           x="512.82458"
           id="tspan16252"
           sodipodi:role="line"
           style="font-size:14.6667px;line-height:1.25;text-align:start;text-anchor:start;fill:#2e3436;stroke-width:0.999999">Album Title</tspan></text>
      <text
         id="text16258"
         y="358.62268"
         x="720.83789"
         style="font-style:normal;font-variant:normal;font-weight:normal;font-stretch:normal;font-size:14.6667px;line-height:0%;font-family:Cantarell;-inkscape-font-specification:Cantarell;text-align:end;letter-spacing:0px;word-spacing:0px;text-anchor:end;display:inline;fill:#2e3436;fill-opacity:1;stroke:none;stroke-width:0.999999"
         xml:space="preserve"><tspan
           y="358.62268"
           x="720.83789"
           id="tspan16256"
           sodipodi:role="line"
           style="font-size:14.6667px;line-height:1.25;text-align:end;text-anchor:end;fill:#2e3436;stroke-width:0.999999">4:56</tspan></text>
    </g>
    <g
       id="g16294"
       transform="translate(48,432.00006)">
      <rect
         style="opacity:0.6;fill:#f6f5f4;fill-opacity:1;stroke:none;stroke-width:4.26667;stroke-linecap:round;stroke-linejoin:round;stroke-dashoffset:2"
         id="rect16262"
         width="672"
         height="64.000015"
         x="128"
         y="321.53333" />
      <text
         id="text16266"
         y="358.87933"
         x="212.82458"
         style="font-style:normal;font-variant:normal;font-weight:normal;font-stretch:normal;font-size:14.6667px;line-height:0%;font-family:Cantarell;-inkscape-font-specification:Cantarell;text-align:start;letter-spacing:0px;word-spacing:0px;text-anchor:start;display:inline;fill:#2e3436;fill-opacity:1;stroke:none;stroke-width:0.999999"
         xml:space="preserve"><tspan
           y="358.87933"
           x="212.82458"
           id="tspan16264"
           sodipodi:role="line"
           style="font-size:14.6667px;line-height:1.25;text-align:start;text-anchor:start;fill:#2e3436;stroke-width:0.999999">Track</tspan></text>
      <rect
         style="opacity:0.6;fill:#c0bfbc;stroke:none;stroke-width:1;stroke-linecap:round;stroke-linejoin:round;stroke-dasharray:none;stroke-dashoffset:2"
         id="rect16268"
         width="48"
         height="47.999985"
         x="136"
         y="329.53333"
         ry="6" />
      <rect
         style="opacity:0.6;fill:#f6f5f4;fill-opacity:1;stroke:none;stroke-width:1;stroke-linecap:round;stroke-linejoin:round;stroke-dasharray:none;stroke-dashoffset:2"
         id="rect16272"
         width="32"
         height="31.99999"
         x="768"
         y="337.53333"
         ry="6" />
      <g
         transform="matrix(3.7795274,0,0,3.7795274,272.99846,1180.0145)"
         id="g16280">
        <rect
           y="-220.78981"
           x="133.08583"
           height="4.2333331"
           width="4.2333331"
           id="rect16274"
           style="color:#bebebe;display:inline;overflow:visible;visibility:visible;fill:none;stroke:none;stroke-width:0.264583;marker:none" />
        <g
           transform="matrix(0.26458333,0,0,0.26458333,133.08736,-220.78981)"
           fill="#2e3436"
           id="g16278">
          <path
             inkscape:connector-curvature="0"
             d="m 9.994,2 a 2,2 0 0 1 -2,2 2,2 0 0 1 -2,-2 2,2 0 0 1 2,-2 2,2 0 0 1 2,2 z m 0,6 a 2,2 0 0 1 -2,2 2,2 0 0 1 -2,-2 2,2 0 0 1 2,-2 2,2 0 0 1 2,2 z m 0,6 a 2,2 0 0 1 -2,2 2,2 0 0 1 -2,-2 2,2 0 0 1 2,-2 2,2 0 0 1 2,2 z"
             id="path16276" />
        </g>
      </g>
      <text
         id="text16284"
         y="358.87933"
         x="352.82458"
         style="font-style:normal;font-variant:normal;font-weight:normal;font-stretch:normal;font-size:14.6667px;line-height:0%;font-family:Cantarell;-inkscape-font-specification:Cantarell;text-align:start;letter-spacing:0px;word-spacing:0px;text-anchor:start;display:inline;fill:#2e3436;fill-opacity:1;stroke:none;stroke-width:0.999999"
         xml:space="preserve"><tspan
           y="358.87933"
           x="352.82458"
           id="tspan16282"
           sodipodi:role="line"
           style="font-size:14.6667px;line-height:1.25;text-align:start;text-anchor:start;fill:#2e3436;stroke-width:0.999999">Artist Name</tspan></text>
      <text
         id="text16288"
         y="358.65933"
         x="512.82458"
         style="font-style:normal;font-variant:normal;font-weight:normal;font-stretch:normal;font-size:14.6667px;line-height:0%;font-family:Cantarell;-inkscape-font-specification:Cantarell;text-align:start;letter-spacing:0px;word-spacing:0px;text-anchor:start;display:inline;fill:#2e3436;fill-opacity:1;stroke:none;stroke-width:0.999999"
         xml:space="preserve"><tspan
           y="358.65933"
           x="512.82458"
           id="tspan16286"
           sodipodi:role="line"
           style="font-size:14.6667px;line-height:1.25;text-align:start;text-anchor:start;fill:#2e3436;stroke-width:0.999999">Album Title</tspan></text>
      <text
         id="text16292"
         y="358.62268"
         x="720.83789"
         style="font-style:normal;font-variant:normal;font-weight:normal;font-stretch:normal;font-size:14.6667px;line-height:0%;font-family:Cantarell;-inkscape-font-specification:Cantarell;text-align:end;letter-spacing:0px;word-spacing:0px;text-anchor:end;display:inline;fill:#2e3436;fill-opacity:1;stroke:none;stroke-width:0.999999"
         xml:space="preserve"><tspan
           y="358.62268"
           x="720.83789"
           id="tspan16290"
           sodipodi:role="line"
           style="font-size:14.6667px;line-height:1.25;text-align:end;text-anchor:end;fill:#2e3436;stroke-width:0.999999">4:56</tspan></text>
    </g>
    <rect
       y="338.03329"
       x="1056.5"
       height="639"
       width="799"
       id="rect16296"
       style="display:inline;fill:#f6f5f4;fill-opacity:1;stroke:#d0d0d0;stroke-width:0.99999;stroke-linecap:square;stroke-miterlimit:4;stroke-dasharray:none;stroke-dashoffset:0;stroke-opacity:1" />
    <rect
       style="opacity:0.6;fill:#f6f5f4;fill-opacity:1;stroke:none;stroke-width:4.26667;stroke-linecap:round;stroke-linejoin:round;stroke-dashoffset:2"
       id="rect16298"
       width="672"
       height="96"
       x="1120"
       y="393.53333" />
    <text
       id="text16302"
       y="424.87933"
       x="1220.8246"
       style="font-style:normal;font-variant:normal;font-weight:normal;font-stretch:normal;font-size:14.6667px;line-height:0%;font-family:Cantarell;-inkscape-font-specification:Cantarell;text-align:start;letter-spacing:0px;word-spacing:0px;text-anchor:start;display:inline;fill:#2e3436;fill-opacity:1;stroke:none;stroke-width:0.999999"
       xml:space="preserve"><tspan
         y="424.87933"
         x="1220.8246"
         id="tspan16300"
         sodipodi:role="line"
         style="font-weight:bold;font-size:14.6667px;line-height:1.25;text-align:start;text-anchor:start;fill:#2e3436;stroke-width:0.999999">Section Header</tspan></text>
    <rect
       style="opacity:0.6;fill:#c0bfbc;stroke:none;stroke-width:1;stroke-linecap:round;stroke-linejoin:round;stroke-dasharray:none;stroke-dashoffset:2"
       id="rect16304"
       width="64"
       height="63.999977"
       x="1128"
       y="409.53333"
       ry="31.999989" />
    <path
       style="fill:none;stroke:#d5d5d3;stroke-width:1px;stroke-linecap:butt;stroke-linejoin:miter;stroke-opacity:1"
       d="m 1212,489.03331 h 580"
       id="path16306"
       sodipodi:nodetypes="cc" />
    <g
       id="g21681"
       transform="translate(-32,-44)">
      <rect
         style="opacity:0.6;fill:#deddda;fill-opacity:1;stroke:none;stroke-width:1;stroke-linecap:round;stroke-linejoin:round;stroke-dasharray:none;stroke-dashoffset:2"
         id="rect16308"
         width="32"
         height="31.99999"
         x="1792"
         y="469.53333"
         ry="6" />
      <g
         inkscape:label="play continue repeat run execute"
         id="g3034-3"
         transform="matrix(0,1,1,0,1604.9968,314.39752)">
        <title
           id="title3026-6">media-playback-start</title>
        <rect
           y="195.00317"
           x="163.1358"
           height="16"
           width="16"
           id="rect3028-7"
           style="fill:none;fill-opacity:1" />
        <path
           id="path3030-3"
           d="m 165.63581,197.00317 h 11 c 1.5,0 1.49371,1.26818 1.49371,1.26818 v 0.13119 c 10e-4,0.24477 -0.0542,0.48668 -0.17493,0.69969 l -5.59748,9.79559 c -0.24054,0.43478 -0.7325,0.65596 -1.22445,0.65596 -0.49194,0 -0.98391,-0.22118 -1.22445,-0.65596 l -5.59748,-9.79559 c -0.12076,-0.21301 -0.17676,-0.45492 -0.17492,-0.69969 v -0.13119 c 0,0 0,-1.26818 1.5,-1.26818 z"
           style="font-style:normal;font-variant:normal;font-weight:normal;font-stretch:normal;font-size:medium;line-height:normal;font-family:'Bitstream Vera Sans';-inkscape-font-specification:'Bitstream Vera Sans';text-indent:0;text-align:start;text-decoration:none;text-decoration-line:none;letter-spacing:normal;word-spacing:normal;text-transform:none;writing-mode:lr-tb;direction:ltr;text-anchor:start;fill:#2e3436;fill-opacity:1" />
      </g>
    </g>
    <text
       id="text16518"
       y="444.87933"
       x="1220.8246"
       style="font-style:normal;font-variant:normal;font-weight:normal;font-stretch:normal;font-size:14.6667px;line-height:0%;font-family:Cantarell;-inkscape-font-specification:Cantarell;text-align:start;letter-spacing:0px;word-spacing:0px;text-anchor:start;display:inline;fill:#2e3436;fill-opacity:1;stroke:none;stroke-width:0.999999"
       xml:space="preserve"><tspan
         y="444.87933"
         x="1220.8246"
         sodipodi:role="line"
         style="font-weight:normal;font-size:14.6667px;line-height:1.25;text-align:start;text-anchor:start;fill:#2e3436;stroke-width:0.999999"
         id="tspan16659">Long string of text below the section header that may or may not wrap to the </tspan><tspan
         y="463.21271"
         x="1220.8246"
         sodipodi:role="line"
         style="font-weight:normal;font-size:14.6667px;line-height:1.25;text-align:start;text-anchor:start;fill:#2e3436;stroke-width:0.999999"
         id="tspan23079">next line.</tspan></text>
    <g
       id="g16699"
       transform="translate(-80,72)">
      <rect
         style="opacity:0.6;fill:#f6f5f4;fill-opacity:1;stroke:none;stroke-width:4.26667;stroke-linecap:round;stroke-linejoin:round;stroke-dashoffset:2"
         id="rect16675"
         width="672"
         height="96"
         x="1200"
         y="417.53333" />
      <text
         id="text16679"
         y="456.87933"
         x="1300.8246"
         style="font-style:normal;font-variant:normal;font-weight:normal;font-stretch:normal;font-size:14.6667px;line-height:0%;font-family:Cantarell;-inkscape-font-specification:Cantarell;text-align:start;letter-spacing:0px;word-spacing:0px;text-anchor:start;display:inline;fill:#2e3436;fill-opacity:1;stroke:none;stroke-width:0.999999"
         xml:space="preserve"><tspan
           y="456.87933"
           x="1300.8246"
           id="tspan16677"
           sodipodi:role="line"
           style="font-weight:bold;font-size:14.6667px;line-height:1.25;text-align:start;text-anchor:start;fill:#2e3436;stroke-width:0.999999">Section Header</tspan></text>
      <rect
         style="opacity:0.6;fill:#c0bfbc;stroke:none;stroke-width:1;stroke-linecap:round;stroke-linejoin:round;stroke-dasharray:none;stroke-dashoffset:2"
         id="rect16681"
         width="64"
         height="63.999977"
         x="1208"
         y="433.53333"
         ry="31.999989" />
      <path
         style="fill:none;stroke:#d5d5d3;stroke-width:1px;stroke-linecap:butt;stroke-linejoin:miter;stroke-opacity:1"
         d="m 1292,513.03331 h 580"
         id="path16683"
         sodipodi:nodetypes="cc" />
      <g
         id="g16691"
         transform="translate(2,10.000005)" />
      <text
         id="text16697"
         y="476.87933"
         x="1300.8246"
         style="font-style:normal;font-variant:normal;font-weight:normal;font-stretch:normal;font-size:14.6667px;line-height:0%;font-family:Cantarell;-inkscape-font-specification:Cantarell;text-align:start;letter-spacing:0px;word-spacing:0px;text-anchor:start;display:inline;fill:#2e3436;fill-opacity:1;stroke:none;stroke-width:0.999999"
         xml:space="preserve"><tspan
           y="476.87933"
           x="1300.8246"
           sodipodi:role="line"
           style="font-weight:normal;font-size:14.6667px;line-height:1.25;text-align:start;text-anchor:start;fill:#2e3436;stroke-width:0.999999"
           id="tspan16695">Long string of text below the section header that may or may notwrap to the next line.</tspan></text>
    </g>
    <rect
       style="opacity:0.6;fill:#f6f5f4;fill-opacity:1;stroke:none;stroke-width:4.26666;stroke-linecap:round;stroke-linejoin:round;stroke-dashoffset:2"
       id="rect16701"
       width="672"
       height="112"
       x="1120"
       y="585.53333" />
    <path
       style="fill:none;stroke:#d5d5d3;stroke-width:1px;stroke-linecap:butt;stroke-linejoin:miter;stroke-opacity:1"
       d="m 1212,698.03333 h 580"
       id="path16709"
       sodipodi:nodetypes="cc" />
    <text
       id="text16705"
       y="615.28802"
       x="1220.8246"
       style="font-style:normal;font-variant:normal;font-weight:normal;font-stretch:normal;font-size:14.6667px;line-height:0%;font-family:Cantarell;-inkscape-font-specification:Cantarell;text-align:start;letter-spacing:0px;word-spacing:0px;text-anchor:start;display:inline;fill:#2e3436;fill-opacity:1;stroke:none;stroke-width:0.999999"
       xml:space="preserve"><tspan
         y="615.28802"
         x="1220.8246"
         id="tspan16703"
         sodipodi:role="line"
         style="font-weight:bold;font-size:14.6667px;line-height:1.25;text-align:start;text-anchor:start;fill:#2e3436;stroke-width:0.999999">Section Header</tspan></text>
    <rect
       style="opacity:0.6;fill:#c0bfbc;stroke:none;stroke-width:1;stroke-linecap:round;stroke-linejoin:round;stroke-dasharray:none;stroke-dashoffset:2"
       id="rect16707"
       width="64"
       height="63.999977"
       x="1128"
       y="609.94202"
       ry="31.999989" />
    <rect
       style="opacity:0.6;fill:#deddda;fill-opacity:1;stroke:none;stroke-width:1;stroke-linecap:round;stroke-linejoin:round;stroke-dasharray:none;stroke-dashoffset:2"
       id="rect16711"
       width="80"
       height="31.99999"
       x="1712"
       y="617.94202"
       ry="6" />
    <text
       id="text16715"
       y="638.95801"
       x="1751.868"
       style="font-style:normal;font-variant:normal;font-weight:normal;font-stretch:normal;font-size:14.6667px;line-height:0%;font-family:Cantarell;-inkscape-font-specification:Cantarell;text-align:center;letter-spacing:0px;word-spacing:0px;text-anchor:middle;display:inline;fill:#2e3436;fill-opacity:1;stroke:none;stroke-width:0.999999"
       xml:space="preserve"><tspan
         y="638.95801"
         x="1751.868"
         id="tspan16713"
         sodipodi:role="line"
         style="font-weight:bold;font-size:14.6667px;line-height:1.25;text-align:center;text-anchor:middle;fill:#2e3436;stroke-width:0.999999">Button</tspan></text>
    <text
       id="text19907"
       y="670.95801"
       x="1747.394"
       style="font-style:normal;font-variant:normal;font-weight:normal;font-stretch:normal;font-size:14.6667px;line-height:0%;font-family:Cantarell;-inkscape-font-specification:Cantarell;text-align:center;letter-spacing:0px;word-spacing:0px;text-anchor:middle;display:inline;fill:#9a9996;fill-opacity:1;stroke:none;stroke-width:0.999999"
       xml:space="preserve"><tspan
         y="670.95801"
         x="1747.394"
         id="tspan19905"
         sodipodi:role="line"
         style="font-weight:normal;font-size:14.6667px;line-height:1.25;text-align:start;text-anchor:start;fill:#9a9996;stroke-width:0.999999">Icon</tspan></text>
    <text
       id="text16723"
       y="635.28802"
       x="1220.8246"
       style="font-style:normal;font-variant:normal;font-weight:normal;font-stretch:normal;font-size:14.6667px;line-height:0%;font-family:Cantarell;-inkscape-font-specification:Cantarell;text-align:start;letter-spacing:0px;word-spacing:0px;text-anchor:start;display:inline;fill:#2e3436;fill-opacity:1;stroke:none;stroke-width:0.999999"
       xml:space="preserve"><tspan
         y="635.28802"
         x="1220.8246"
         id="tspan16719"
         sodipodi:role="line"
         style="font-weight:normal;font-size:14.6667px;line-height:1.25;text-align:start;text-anchor:start;fill:#2e3436;stroke-width:0.999999">Long string of text below the section header that may or may not</tspan><tspan
         y="653.6214"
         x="1220.8246"
         sodipodi:role="line"
         style="font-weight:normal;font-size:14.6667px;line-height:1.25;text-align:start;text-anchor:start;fill:#2e3436;stroke-width:0.999999"
         id="tspan16721">wrap to the next line.</tspan></text>
    <text
       id="text17479"
       y="675.28802"
       x="1220.8246"
       style="font-style:normal;font-variant:normal;font-weight:normal;font-stretch:normal;font-size:14.6667px;line-height:0%;font-family:Cantarell;-inkscape-font-specification:Cantarell;text-align:start;letter-spacing:0px;word-spacing:0px;text-anchor:start;display:inline;fill:#9a9996;fill-opacity:1;stroke:none;stroke-width:0.999999"
       xml:space="preserve"><tspan
         y="675.28802"
         x="1220.8246"
         sodipodi:role="line"
         style="font-weight:normal;font-size:14.6667px;line-height:1.25;text-align:start;text-anchor:start;fill:#9a9996;stroke-width:0.999999"
         id="tspan17477">Optional third string with less priority</tspan></text>
    <path
       id="path4100-6"
       d="m 1734,658.94198 c -1.6568,0 -3,1.34315 -3,3 0,1.65685 1.3432,3 3,3 1.6569,0 3,-1.34315 3,-3 0,-1.65685 -1.3431,-3 -3,-3 z m -1.5,7 c -2.493,0 -4.5,2.007 -4.5,4.5 v 0.5 c 0,1.108 0.892,2 2,2 h 8 c 1.108,0 2,-0.892 2,-2 v -0.5 c 0,-2.493 -2.007,-4.5 -4.5,-4.5 z"
       style="fill:#9a9996;fill-opacity:1" />
    <g
       id="g16751"
       transform="translate(-80,281.00004)">
      <rect
         style="opacity:0.6;fill:#f6f5f4;fill-opacity:1;stroke:none;stroke-width:4.26667;stroke-linecap:round;stroke-linejoin:round;stroke-dashoffset:2"
         id="rect16727"
         width="672"
         height="96"
         x="1200"
         y="417.53333" />
      <text
         id="text16731"
         y="448.87933"
         x="1300.8246"
         style="font-style:normal;font-variant:normal;font-weight:normal;font-stretch:normal;font-size:14.6667px;line-height:0%;font-family:Cantarell;-inkscape-font-specification:Cantarell;text-align:start;letter-spacing:0px;word-spacing:0px;text-anchor:start;display:inline;fill:#2e3436;fill-opacity:1;stroke:none;stroke-width:0.999999"
         xml:space="preserve"><tspan
           y="448.87933"
           x="1300.8246"
           id="tspan16729"
           sodipodi:role="line"
           style="font-weight:bold;font-size:14.6667px;line-height:1.25;text-align:start;text-anchor:start;fill:#2e3436;stroke-width:0.999999">Section Header</tspan></text>
      <rect
         style="opacity:0.6;fill:#c0bfbc;stroke:none;stroke-width:1;stroke-linecap:round;stroke-linejoin:round;stroke-dasharray:none;stroke-dashoffset:2"
         id="rect16733"
         width="64"
         height="63.999977"
         x="1208"
         y="433.53333"
         ry="31.999989" />
      <path
         style="fill:none;stroke:#d5d5d3;stroke-width:1px;stroke-linecap:butt;stroke-linejoin:miter;stroke-opacity:1"
         d="m 1292,513.03331 h 580"
         id="path16735"
         sodipodi:nodetypes="cc" />
      <g
         id="g16743"
         transform="translate(2,10.000005)">
        <rect
           style="opacity:0.6;fill:#deddda;fill-opacity:1;stroke:none;stroke-width:1;stroke-linecap:round;stroke-linejoin:round;stroke-dasharray:none;stroke-dashoffset:2"
           id="rect16737"
           width="80"
           height="31.99999"
           x="1790"
           y="439.53333"
           ry="6" />
        <text
           id="text16741"
           y="460.54935"
           x="1829.868"
           style="font-style:normal;font-variant:normal;font-weight:normal;font-stretch:normal;font-size:14.6667px;line-height:0%;font-family:Cantarell;-inkscape-font-specification:Cantarell;text-align:center;letter-spacing:0px;word-spacing:0px;text-anchor:middle;display:inline;fill:#2e3436;fill-opacity:1;stroke:none;stroke-width:0.999999"
           xml:space="preserve"><tspan
             y="460.54935"
             x="1829.868"
             id="tspan16739"
             sodipodi:role="line"
             style="font-weight:bold;font-size:14.6667px;line-height:1.25;text-align:center;text-anchor:middle;fill:#2e3436;stroke-width:0.999999">Button</tspan></text>
      </g>
      <text
         id="text16749"
         y="468.87933"
         x="1300.8246"
         style="font-style:normal;font-variant:normal;font-weight:normal;font-stretch:normal;font-size:14.6667px;line-height:0%;font-family:Cantarell;-inkscape-font-specification:Cantarell;text-align:start;letter-spacing:0px;word-spacing:0px;text-anchor:start;display:inline;fill:#2e3436;fill-opacity:1;stroke:none;stroke-width:0.999999"
         xml:space="preserve"><tspan
           y="468.87933"
           x="1300.8246"
           id="tspan16745"
           sodipodi:role="line"
           style="font-weight:normal;font-size:14.6667px;line-height:1.25;text-align:start;text-anchor:start;fill:#2e3436;stroke-width:0.999999">Long string of text below the section header that may or may not</tspan><tspan
           y="487.21271"
           x="1300.8246"
           sodipodi:role="line"
           style="font-weight:normal;font-size:14.6667px;line-height:1.25;text-align:start;text-anchor:start;fill:#2e3436;stroke-width:0.999999"
           id="tspan16747">wrap to the next line.</tspan></text>
    </g>
    <g
       id="g16777"
       transform="translate(-80,377.00004)">
      <rect
         style="opacity:0.6;fill:#f6f5f4;fill-opacity:1;stroke:none;stroke-width:4.26667;stroke-linecap:round;stroke-linejoin:round;stroke-dashoffset:2"
         id="rect16753"
         width="672"
         height="96"
         x="1200"
         y="417.53333" />
      <text
         id="text16757"
         y="448.87933"
         x="1300.8246"
         style="font-style:normal;font-variant:normal;font-weight:normal;font-stretch:normal;font-size:14.6667px;line-height:0%;font-family:Cantarell;-inkscape-font-specification:Cantarell;text-align:start;letter-spacing:0px;word-spacing:0px;text-anchor:start;display:inline;fill:#2e3436;fill-opacity:1;stroke:none;stroke-width:0.999999"
         xml:space="preserve"><tspan
           y="448.87933"
           x="1300.8246"
           id="tspan16755"
           sodipodi:role="line"
           style="font-weight:bold;font-size:14.6667px;line-height:1.25;text-align:start;text-anchor:start;fill:#2e3436;stroke-width:0.999999">Section Header</tspan></text>
      <rect
         style="opacity:0.6;fill:#c0bfbc;stroke:none;stroke-width:1;stroke-linecap:round;stroke-linejoin:round;stroke-dasharray:none;stroke-dashoffset:2"
         id="rect16759"
         width="64"
         height="63.999977"
         x="1208"
         y="433.53333"
         ry="31.999989" />
      <g
         id="g16769"
         transform="translate(2,10.000005)">
        <rect
           style="opacity:0.6;fill:#deddda;fill-opacity:1;stroke:none;stroke-width:1;stroke-linecap:round;stroke-linejoin:round;stroke-dasharray:none;stroke-dashoffset:2"
           id="rect16763"
           width="80"
           height="31.99999"
           x="1790"
           y="439.53333"
           ry="6" />
        <text
           id="text16767"
           y="460.54935"
           x="1829.868"
           style="font-style:normal;font-variant:normal;font-weight:normal;font-stretch:normal;font-size:14.6667px;line-height:0%;font-family:Cantarell;-inkscape-font-specification:Cantarell;text-align:center;letter-spacing:0px;word-spacing:0px;text-anchor:middle;display:inline;fill:#2e3436;fill-opacity:1;stroke:none;stroke-width:0.999999"
           xml:space="preserve"><tspan
             y="460.54935"
             x="1829.868"
             id="tspan16765"
             sodipodi:role="line"
             style="font-weight:bold;font-size:14.6667px;line-height:1.25;text-align:center;text-anchor:middle;fill:#2e3436;stroke-width:0.999999">Button</tspan></text>
      </g>
      <text
         id="text16775"
         y="468.87933"
         x="1300.8246"
         style="font-style:normal;font-variant:normal;font-weight:normal;font-stretch:normal;font-size:14.6667px;line-height:0%;font-family:Cantarell;-inkscape-font-specification:Cantarell;text-align:start;letter-spacing:0px;word-spacing:0px;text-anchor:start;display:inline;fill:#2e3436;fill-opacity:1;stroke:none;stroke-width:0.999999"
         xml:space="preserve"><tspan
           y="468.87933"
           x="1300.8246"
           id="tspan16771"
           sodipodi:role="line"
           style="font-weight:normal;font-size:14.6667px;line-height:1.25;text-align:start;text-anchor:start;fill:#2e3436;stroke-width:0.999999">Long string of text below the section header that may or may not</tspan><tspan
           y="487.21271"
           x="1300.8246"
           sodipodi:role="line"
           style="font-weight:normal;font-size:14.6667px;line-height:1.25;text-align:start;text-anchor:start;fill:#2e3436;stroke-width:0.999999"
           id="tspan16773">wrap to the next line.</tspan></text>
    </g>
    <text
       id="text15979-9"
       y="268.65933"
       x="117.23599"
       style="font-style:normal;font-variant:normal;font-weight:normal;font-stretch:normal;font-size:32px;line-height:0%;font-family:Cantarell;-inkscape-font-specification:Cantarell;text-align:start;letter-spacing:0px;word-spacing:0px;text-anchor:start;display:inline;fill:#2e3436;fill-opacity:1;stroke:none;stroke-width:0.999999"
       xml:space="preserve"><tspan
         y="268.65933"
         x="117.23599"
         id="tspan15977-1"
         sodipodi:role="line"
         style="font-style:normal;font-variant:normal;font-weight:800;font-stretch:normal;font-size:32px;line-height:1.25;font-family:Cantarell;-inkscape-font-specification:'Cantarell Ultra-Bold';text-align:start;text-anchor:start;fill:#2e3436;stroke-width:0.999999">Generic List Style</tspan></text>
  </g>
</svg>
